<sdf version='1.6'>
  <world name='default'>
    <light name='sun' type='directional'>
      <cast_shadows>1</cast_shadows>
      <pose frame=''>0 0 10 0 -0 0</pose>
      <diffuse>0.8 0.8 0.8 1</diffuse>
      <specular>0.2 0.2 0.2 1</specular>
      <attenuation>
        <range>1000</range>
        <constant>0.9</constant>
        <linear>0.01</linear>
        <quadratic>0.001</quadratic>
      </attenuation>
      <direction>-0.5 0.1 -0.9</direction>
    </light>
    <gravity>0 0 -9.8</gravity>
    <magnetic_field>6e-06 2.3e-05 -4.2e-05</magnetic_field>
    <atmosphere type='adiabatic'/>
    <physics name='default_physics' default='0' type='ode'>
      <max_step_size>0.001</max_step_size>
      <real_time_factor>1</real_time_factor>
      <real_time_update_rate>1000</real_time_update_rate>
    </physics>
    <scene>
      <ambient>0.4 0.4 0.4 1</ambient>
      <background>0.7 0.7 0.7 1</background>
      <shadows>1</shadows>
    </scene>
    <wind/>
    <spherical_coordinates>
      <surface_model>EARTH_WGS84</surface_model>
      <latitude_deg>0</latitude_deg>
      <longitude_deg>0</longitude_deg>
      <elevation>0</elevation>
      <heading_deg>0</heading_deg>
    </spherical_coordinates>
    <model name='Checkpoint'>
      <link name='inside_checkpoint'>
        <pose frame=''>0 0 0.49 0 -0 0</pose>
        <gravity>0</gravity>
        <sensor name='checkpoint_sensor' type='contact'>
          <contact>
            <collision>inside_checkpoint</collision>
            <collision>border_checkpoint</collision>
            <topic>__default_topic__</topic>
          </contact>
        </sensor>
        <collision name='inside_checkpoint'>
          <geometry>
            <box>
              <size>1 1 1</size>
            </box>
          </geometry>
          <surface>
            <contact>
              <collide_without_contact>1</collide_without_contact>
              <ode/>
            </contact>
            <bounce/>
            <friction>
              <torsional>
                <ode/>
              </torsional>
              <ode/>
            </friction>
          </surface>
          <max_contacts>10</max_contacts>
        </collision>
        <self_collide>0</self_collide>
        <inertial>
          <pose frame=''>0 0 0 0 -0 0</pose>
          <inertia>
            <ixx>1</ixx>
            <ixy>0</ixy>
            <ixz>0</ixz>
            <iyy>1</iyy>
            <iyz>0</iyz>
            <izz>1</izz>
          </inertia>
          <mass>1</mass>
        </inertial>
        <enable_wind>0</enable_wind>
        <kinematic>0</kinematic>
      </link>
      <link name='border_checkpoint'>
        <gravity>0</gravity>
        <pose frame=''>0 0 -0.01 0 -0 0</pose>
        <collision name='border_checkpoint'>
          <geometry>
            <polyline>
              <point>-0.49 -0.49</point>
              <point>-0.49 0.49</point>
              <point>0.49 0.49</point>
              <point>0.49 -0.48</point>
              <point>0.5 -0.5</point>
              <point>0.5 0.5</point>
              <point>-0.5 0.5</point>
              <point>-0.5 -0.5</point>
              <point>0.5 -0.5</point>
              <height>1</height>
            </polyline>
          </geometry>
          <surface>
            <contact>
              <collide_without_contact>1</collide_without_contact>
              <ode/>
            </contact>
            <bounce/>
            <friction>
              <torsional>
                <ode/>
              </torsional>
              <ode/>
            </friction>
          </surface>
          <max_contacts>10</max_contacts>
        </collision>
        <visual name='line1'>
          <cast_shadows>0</cast_shadows>
          <pose frame=''>0.55 0 0.011 0 -0 0</pose>
          <geometry>
            <plane>
              <normal>0 0 1</normal>
              <size>0.1 1.2</size>
            </plane>
          </geometry>
          <material>
            <script>
              <uri>file://media/materials/scripts/gazebo.material</uri>
              <name>Gazebo/Yellow</name>
            </script>
          </material>
        </visual>
        <visual name='line2'>
          <cast_shadows>0</cast_shadows>
          <pose frame=''>-0 0.55 0.011 0 -0 1.5708</pose>
          <geometry>
            <plane>
              <normal>0 0 1</normal>
              <size>0.1 1.2</size>
            </plane>
          </geometry>
          <material>
            <script>
              <uri>file://media/materials/scripts/gazebo.material</uri>
              <name>Gazebo/Yellow</name>
            </script>
          </material>
        </visual>
        <visual name='line3'>
          <cast_shadows>0</cast_shadows>
          <pose frame=''>-0.55 0 0.011 0 -0 0</pose>
          <geometry>
            <plane>
              <normal>0 0 1</normal>
              <size>0.1 1.2</size>
            </plane>
          </geometry>
          <material>
            <script>
              <uri>file://media/materials/scripts/gazebo.material</uri>
              <name>Gazebo/Yellow</name>
            </script>
          </material>
        </visual>
        <visual name='line4'>
          <cast_shadows>0</cast_shadows>
          <pose frame=''>0 -0.55 0.011 0 -0 1.5708</pose>
          <geometry>
            <plane>
              <normal>0 0 1</normal>
              <size>0.1 1.2</size>
            </plane>
          </geometry>
          <material>
            <script>
              <uri>file://media/materials/scripts/gazebo.material</uri>
              <name>Gazebo/Yellow</name>
            </script>
          </material>
        </visual>
        <self_collide>0</self_collide>
        <inertial>
          <pose frame=''>0 0 0 0 -0 0</pose>
          <inertia>
            <ixx>1</ixx>
            <ixy>0</ixy>
            <ixz>0</ixz>
            <iyy>1</iyy>
            <iyz>0</iyz>
            <izz>1</izz>
          </inertia>
          <mass>1</mass>
        </inertial>
        <enable_wind>0</enable_wind>
        <kinematic>0</kinematic>
      </link>
      <pose frame=''>-102.904 -37.3139 0 0 -0 0</pose>
    </model>
    <state world_name='default'>
      <sim_time>410 438000000</sim_time>
      <real_time>140 887544127</real_time>
      <wall_time>1579159932 739325347</wall_time>
      <iterations>134565</iterations>
      <model name='Checkpoint'>
        <pose frame=''>0 0 0 0 -0 0</pose>
        <scale>1 1 1</scale>
        <link name='border_checkpoint'>
          <pose frame=''>0 0 -0.01 0 -0 0</pose>
          <velocity>0 0 0 0 -0 0</velocity>
          <acceleration>0 0 0 0 -0 0</acceleration>
          <wrench>0 0 0 0 -0 0</wrench>
        </link>
        <link name='inside_checkpoint'>
          <pose frame=''>0 0 0.49 0 -0 0</pose>
          <velocity>0 0 0 0 -0 0</velocity>
          <acceleration>0 0 0 0 -0 0</acceleration>
          <wrench>0 0 0 0 -0 0</wrench>
        </link>
      </model>
      <model name='terrain'>
        <pose frame=''>0 0 0 0 -0 0</pose>
        <scale>1 1 1</scale>
        <link name='link'>
          <pose frame=''>0 0 0 0 -0 0</pose>
          <velocity>0 0 0 0 -0 0</velocity>
          <acceleration>0 0 0 0 -0 0</acceleration>
          <wrench>0 0 0 0 -0 0</wrench>
        </link>
      </model>
      <light name='sun'>
        <pose frame=''>0 0 10 0 -0 0</pose>
      </light>
    </state>
    <gui fullscreen='0'>
      <camera name='user_camera'>
        <pose frame=''>9.88878 -193.054 43.7888 0 0.040885 1.63158</pose>
        <view_controller>orbit</view_controller>
        <projection_type>perspective</projection_type>
      </camera>
    </gui>
    <model name='terrain'>
      <static>1</static>
      <link name='link'>
        <pose frame=''>0 0 0 0 -0 0</pose>
        <inertial>
          <pose frame=''>0.13606 0 0.02002 0 -0 0</pose>
          <inertia>
            <ixx>0.00016</ixx>
            <ixy>0</ixy>
            <ixz>0.0003</ixz>
            <iyy>0.00113</iyy>
            <iyz>0</iyz>
            <izz>0.00106</izz>
          </inertia>
          <mass>0.14867</mass>
        </inertial>
        <visual name='visual'>
          <pose frame=''>0 0 0 0 -0 0</pose>
          <geometry>
            <mesh>
              <uri>model://terrain/meshes/120m_landscape_smooth_tri.dae</uri>
              <scale>1 1 0.5</scale>
            </mesh>
          </geometry>
          <material>
            <script>
              <uri>model://terrain/materials/scripts</uri>
              <uri>model://terrain/materials/textures</uri>
              <name>Gazebo/terrain</name>
            </script>
          </material>
        </visual>
        <collision name='collision'>
          <pose frame=''>0 0 0 0 -0 0</pose>
          <geometry>
            <mesh>
              <uri>model://terrain/meshes/120m_landscape_smooth_tri.dae</uri>
              <scale>1 1 0.5</scale>
            </mesh>
          </geometry>
          <max_contacts>10</max_contacts>
          <surface>
            <contact>
              <ode/>
            </contact>
            <bounce/>
            <friction>
              <torsional>
                <ode/>
              </torsional>
              <ode/>
            </friction>
          </surface>
        </collision>
        <self_collide>0</self_collide>
        <enable_wind>0</enable_wind>
        <kinematic>0</kinematic>
      </link>
      <pose frame=''>-5.12922 -3.74066 0 0 -0 0</pose>
    </model>
  </world>
</sdf>
